scripts/vcd/soc.vcd
$version Generated by VerilatedVcd $end
$timescale 1ps $end

 $scope module TOP $end
  $scope module tb_picorv32_system $end
   $var wire  1 V" clk $end
   $var wire 32 X" gpio_in [31:0] $end
   $var wire 32 * gpio_out [31:0] $end
   $var wire  1 W" resetn $end
   $scope module soc $end
    $var wire  1 V" clk $end
    $var wire 33 Y" gpio_in [32:0] $end
    $var wire  1 5 gpio_in_sel $end
    $var wire 33 + gpio_out [32:0] $end
    $var wire  1 4 gpio_out_sel $end
    $var wire 32 0 mem_addr [31:0] $end
    $var wire  1 . mem_instr $end
    $var wire 32 # mem_rdata [31:0] $end
    $var wire  1 / mem_ready $end
    $var wire  1 - mem_valid $end
    $var wire 32 1 mem_wdata [31:0] $end
    $var wire  4 2 mem_wstrb [3:0] $end
    $var wire 32 6 ram_rdata [31:0] $end
    $var wire  1 7 ram_ready $end
    $var wire  1 3 ram_sel $end
    $var wire  1 W" resetn $end
    $scope module cpu $end
     $var wire  1 [" BARREL_SHIFTER [0:0] $end
     $var wire  1 \" CATCH_ILLINSN [0:0] $end
     $var wire  1 \" CATCH_MISALIGN [0:0] $end
     $var wire  1 [" COMPRESSED_ISA [0:0] $end
     $var wire  1 [" ENABLE_COUNTERS [0:0] $end
     $var wire  1 [" ENABLE_COUNTERS64 [0:0] $end
     $var wire  1 [" ENABLE_DIV [0:0] $end
     $var wire  1 [" ENABLE_FAST_MUL [0:0] $end
     $var wire  1 [" ENABLE_IRQ [0:0] $end
     $var wire  1 [" ENABLE_IRQ_QREGS [0:0] $end
     $var wire  1 \" ENABLE_IRQ_TIMER [0:0] $end
     $var wire  1 [" ENABLE_MUL [0:0] $end
     $var wire  1 [" ENABLE_PCPI [0:0] $end
     $var wire  1 \" ENABLE_REGS_16_31 [0:0] $end
     $var wire  1 \" ENABLE_REGS_DUALPORT [0:0] $end
     $var wire  1 [" ENABLE_TRACE [0:0] $end
     $var wire 32 ^" LATCHED_IRQ [31:0] $end
     $var wire  1 [" LATCHED_MEM_RDATA [0:0] $end
     $var wire 32 ]" MASKED_IRQ [31:0] $end
     $var wire 32 _" PROGADDR_IRQ [31:0] $end
     $var wire 32 ]" PROGADDR_RESET [31:0] $end
     $var wire  1 [" REGS_INIT_ZERO [0:0] $end
     $var wire 32 ^" STACKADDR [31:0] $end
     $var wire 36 k" TRACE_ADDR [35:0] $end
     $var wire 36 i" TRACE_BRANCH [35:0] $end
     $var wire 36 m" TRACE_IRQ [35:0] $end
     $var wire  1 [" TWO_CYCLE_ALU [0:0] $end
     $var wire  1 [" TWO_CYCLE_COMPARE [0:0] $end
     $var wire  1 \" TWO_STAGE_SHIFT [0:0] $end
     $var wire  1 [" WITH_PCPI [0:0] $end
     $var wire 32 J" alu_add_sub [31:0] $end
     $var wire  1 M" alu_eq $end
     $var wire  1 O" alu_lts $end
     $var wire  1 N" alu_ltu $end
     $var wire 32 D" alu_out [31:0] $end
     $var wire  1 F" alu_out_0 $end
     $var wire  1 G" alu_out_0_q $end
     $var wire 32 E" alu_out_q [31:0] $end
     $var wire 32 K" alu_shl [31:0] $end
     $var wire 32 L" alu_shr [31:0] $end
     $var wire  1 H" alu_wait $end
     $var wire  1 I" alu_wait_2 $end
     $var wire 64 '" cached_ascii_instr [63:0] $end
     $var wire 32 )" cached_insn_imm [31:0] $end
     $var wire 32 *" cached_insn_opcode [31:0] $end
     $var wire  5 -" cached_insn_rd [4:0] $end
     $var wire  5 +" cached_insn_rs1 [4:0] $end
     $var wire  5 ," cached_insn_rs2 [4:0] $end
     $var wire  1 ' clear_prefetched_high_word $end
     $var wire  1 P" clear_prefetched_high_word_q $end
     $var wire  1 V" clk $end
     $var wire  1 _! compressed_instr $end
     $var wire 64 D count_cycle [63:0] $end
     $var wire 64 F count_instr [63:0] $end
     $var wire  8 ." cpu_state [7:0] $end
     $var wire  8 v" cpu_state_exec [7:0] $end
     $var wire  8 s" cpu_state_fetch [7:0] $end
     $var wire  8 t" cpu_state_ld_rs1 [7:0] $end
     $var wire  8 u" cpu_state_ld_rs2 [7:0] $end
     $var wire  8 y" cpu_state_ldmem [7:0] $end
     $var wire  8 w" cpu_state_shift [7:0] $end
     $var wire  8 x" cpu_state_stmem [7:0] $end
     $var wire  8 r" cpu_state_trap [7:0] $end
     $var wire 32 U cpuregs[0] [31:0] $end
     $var wire 32 _ cpuregs[10] [31:0] $end
     $var wire 32 ` cpuregs[11] [31:0] $end
     $var wire 32 a cpuregs[12] [31:0] $end
     $var wire 32 b cpuregs[13] [31:0] $end
     $var wire 32 c cpuregs[14] [31:0] $end
     $var wire 32 d cpuregs[15] [31:0] $end
     $var wire 32 e cpuregs[16] [31:0] $end
     $var wire 32 f cpuregs[17] [31:0] $end
     $var wire 32 g cpuregs[18] [31:0] $end
     $var wire 32 h cpuregs[19] [31:0] $end
     $var wire 32 V cpuregs[1] [31:0] $end
     $var wire 32 i cpuregs[20] [31:0] $end
     $var wire 32 j cpuregs[21] [31:0] $end
     $var wire 32 k cpuregs[22] [31:0] $end
     $var wire 32 l cpuregs[23] [31:0] $end
     $var wire 32 m cpuregs[24] [31:0] $end
     $var wire 32 n cpuregs[25] [31:0] $end
     $var wire 32 o cpuregs[26] [31:0] $end
     $var wire 32 p cpuregs[27] [31:0] $end
     $var wire 32 q cpuregs[28] [31:0] $end
     $var wire 32 r cpuregs[29] [31:0] $end
     $var wire 32 W cpuregs[2] [31:0] $end
     $var wire 32 s cpuregs[30] [31:0] $end
     $var wire 32 t cpuregs[31] [31:0] $end
     $var wire 32 X cpuregs[3] [31:0] $end
     $var wire 32 Y cpuregs[4] [31:0] $end
     $var wire 32 Z cpuregs[5] [31:0] $end
     $var wire 32 [ cpuregs[6] [31:0] $end
     $var wire 32 \ cpuregs[7] [31:0] $end
     $var wire 32 ] cpuregs[8] [31:0] $end
     $var wire 32 ^ cpuregs[9] [31:0] $end
     $var wire 32 S" cpuregs_rs1 [31:0] $end
     $var wire 32 T" cpuregs_rs2 [31:0] $end
     $var wire 32 R" cpuregs_wrdata [31:0] $end
     $var wire  1 Q" cpuregs_write $end
     $var wire 32 @" current_pc [31:0] $end
     $var wire 64 q! dbg_ascii_instr [63:0] $end
     $var wire 128 0" dbg_ascii_state [127:0] $end
     $var wire 32 N dbg_insn_addr [31:0] $end
     $var wire 32 s! dbg_insn_imm [31:0] $end
     $var wire 32 M dbg_insn_opcode [31:0] $end
     $var wire  5 v! dbg_insn_rd [4:0] $end
     $var wire  5 t! dbg_insn_rs1 [4:0] $end
     $var wire  5 u! dbg_insn_rs2 [4:0] $end
     $var wire 32 0 dbg_mem_addr [31:0] $end
     $var wire  1 . dbg_mem_instr $end
     $var wire 32 # dbg_mem_rdata [31:0] $end
     $var wire  1 / dbg_mem_ready $end
     $var wire  1 - dbg_mem_valid $end
     $var wire 32 1 dbg_mem_wdata [31:0] $end
     $var wire  4 2 dbg_mem_wstrb [3:0] $end
     $var wire  1 $" dbg_next $end
     $var wire 32 w! dbg_rs1val [31:0] $end
     $var wire  1 y! dbg_rs1val_valid $end
     $var wire 32 x! dbg_rs2val [31:0] $end
     $var wire  1 z! dbg_rs2val_valid $end
     $var wire  1 &" dbg_valid_insn $end
     $var wire 32 Y! decoded_imm [31:0] $end
     $var wire 32 Z! decoded_imm_j [31:0] $end
     $var wire  5 V! decoded_rd [4:0] $end
     $var wire  5 {" decoded_rs [4:0] $end
     $var wire  5 W! decoded_rs1 [4:0] $end
     $var wire  5 X! decoded_rs2 [4:0] $end
     $var wire  1 ]! decoder_pseudo_trigger $end
     $var wire  1 ^! decoder_pseudo_trigger_q $end
     $var wire  1 [! decoder_trigger $end
     $var wire  1 \! decoder_trigger_q $end
     $var wire  1 C" do_waitirq $end
     $var wire 32 @ eoi [31:0] $end
     $var wire 32 o" i [31:0] $end
     $var wire  1 ?! instr_add $end
     $var wire  1 6! instr_addi $end
     $var wire  1 H! instr_and $end
     $var wire  1 ;! instr_andi $end
     $var wire  1 %! instr_auipc $end
     $var wire  1 (! instr_beq $end
     $var wire  1 +! instr_bge $end
     $var wire  1 -! instr_bgeu $end
     $var wire  1 *! instr_blt $end
     $var wire  1 ,! instr_bltu $end
     $var wire  1 )! instr_bne $end
     $var wire  1 M! instr_ecall_ebreak $end
     $var wire  1 N! instr_fence $end
     $var wire  1 O! instr_getq $end
     $var wire  1 &! instr_jal $end
     $var wire  1 '! instr_jalr $end
     $var wire  1 .! instr_lb $end
     $var wire  1 1! instr_lbu $end
     $var wire  1 /! instr_lh $end
     $var wire  1 2! instr_lhu $end
     $var wire  1 $! instr_lui $end
     $var wire  1 0! instr_lw $end
     $var wire  1 R! instr_maskirq $end
     $var wire  1 G! instr_or $end
     $var wire  1 :! instr_ori $end
     $var wire  1 I! instr_rdcycle $end
     $var wire  1 J! instr_rdcycleh $end
     $var wire  1 K! instr_rdinstr $end
     $var wire  1 L! instr_rdinstrh $end
     $var wire  1 Q! instr_retirq $end
     $var wire  1 3! instr_sb $end
     $var wire  1 P! instr_setq $end
     $var wire  1 4! instr_sh $end
     $var wire  1 A! instr_sll $end
     $var wire  1 <! instr_slli $end
     $var wire  1 B! instr_slt $end
     $var wire  1 7! instr_slti $end
     $var wire  1 8! instr_sltiu $end
     $var wire  1 C! instr_sltu $end
     $var wire  1 F! instr_sra $end
     $var wire  1 >! instr_srai $end
     $var wire  1 E! instr_srl $end
     $var wire  1 =! instr_srli $end
     $var wire  1 @! instr_sub $end
     $var wire  1 5! instr_sw $end
     $var wire  1 T! instr_timer $end
     $var wire  1 U! instr_trap $end
     $var wire  1 S! instr_waitirq $end
     $var wire  1 D! instr_xor $end
     $var wire  1 9! instr_xori $end
     $var wire 32 ]" irq [31:0] $end
     $var wire  1 Q irq_active $end
     $var wire 32 f" irq_buserror [31:0] $end
     $var wire  1 P irq_delay $end
     $var wire 32 e" irq_ebreak [31:0] $end
     $var wire 32 R irq_mask [31:0] $end
     $var wire 32 S irq_pending [31:0] $end
     $var wire  2 /" irq_state [1:0] $end
     $var wire 32 d" irq_timer [31:0] $end
     $var wire 32 g" irqregs_offset [31:0] $end
     $var wire  1 k! is_alu_reg_imm $end
     $var wire  1 l! is_alu_reg_reg $end
     $var wire  1 i! is_beq_bne_blt_bge_bltu_bgeu $end
     $var wire  1 m! is_compare $end
     $var wire  1 c! is_jalr_addi_slti_sltiu_xori_ori_andi $end
     $var wire  1 a! is_lb_lh_lw_lbu_lhu $end
     $var wire  1 j! is_lbu_lhu_lw $end
     $var wire  1 `! is_lui_auipc_jal $end
     $var wire  1 f! is_lui_auipc_jal_jalr_addi_add_sub $end
     $var wire  1 n! is_rdcycle_rdcycleh_rdinstr_rdinstrh $end
     $var wire  1 d! is_sb_sh_sw $end
     $var wire  1 e! is_sll_srl_sra $end
     $var wire  1 b! is_slli_srli_srai $end
     $var wire  1 g! is_slti_blt_slt $end
     $var wire  1 h! is_sltiu_bltu_sltu $end
     $var wire  1 !! last_mem_valid $end
     $var wire  1 9" latched_branch $end
     $var wire  1 :" latched_compr $end
     $var wire  1 >" latched_is_lb $end
     $var wire  1 =" latched_is_lh $end
     $var wire  1 <" latched_is_lu $end
     $var wire  5 ?" latched_rd [4:0] $end
     $var wire  1 8" latched_stalu $end
     $var wire  1 7" latched_store $end
     $var wire  1 ;" latched_trace $end
     $var wire  1 %" launch_next_insn $end
     $var wire 16 q" mem_16bit_buffer [15:0] $end
     $var wire 32 0 mem_addr [31:0] $end
     $var wire  1 #! mem_busy $end
     $var wire  1 x mem_do_prefetch $end
     $var wire  1 z mem_do_rdata $end
     $var wire  1 y mem_do_rinst $end
     $var wire  1 { mem_do_wdata $end
     $var wire  1 ) mem_done $end
     $var wire  1 . mem_instr $end
     $var wire 32 9 mem_la_addr [31:0] $end
     $var wire  1 p" mem_la_firstword $end
     $var wire  1 ~ mem_la_firstword_reg $end
     $var wire  1 p" mem_la_firstword_xfer $end
     $var wire  1 $ mem_la_read $end
     $var wire  1 } mem_la_secondword $end
     $var wire  1 p" mem_la_use_prefetched_high_word $end
     $var wire 32 : mem_la_wdata [31:0] $end
     $var wire  1 % mem_la_write $end
     $var wire  4 ; mem_la_wstrb [3:0] $end
     $var wire 32 # mem_rdata [31:0] $end
     $var wire 32 ( mem_rdata_latched [31:0] $end
     $var wire 32 ( mem_rdata_latched_noshuffle [31:0] $end
     $var wire 32 w mem_rdata_q [31:0] $end
     $var wire 32 & mem_rdata_word [31:0] $end
     $var wire  1 / mem_ready $end
     $var wire  2 u mem_state [1:0] $end
     $var wire  1 - mem_valid $end
     $var wire 32 1 mem_wdata [31:0] $end
     $var wire  2 v mem_wordsize [1:0] $end
     $var wire  4 2 mem_wstrb [3:0] $end
     $var wire  1 | mem_xfer $end
     $var wire 64 o! new_ascii_instr [63:0] $end
     $var wire 32 L next_insn_opcode [31:0] $end
     $var wire 32 B" next_irq_pending [31:0] $end
     $var wire 32 O next_pc [31:0] $end
     $var wire 32 ]" pcpi_div_rd [31:0] $end
     $var wire  1 p" pcpi_div_ready $end
     $var wire  1 p" pcpi_div_wait $end
     $var wire  1 p" pcpi_div_wr $end
     $var wire 32 = pcpi_insn [31:0] $end
     $var wire 32 ]" pcpi_int_rd [31:0] $end
     $var wire  1 p" pcpi_int_ready $end
     $var wire  1 p" pcpi_int_wait $end
     $var wire  1 p" pcpi_int_wr $end
     $var wire 32 ]" pcpi_mul_rd [31:0] $end
     $var wire  1 p" pcpi_mul_ready $end
     $var wire  1 p" pcpi_mul_wait $end
     $var wire  1 p" pcpi_mul_wr $end
     $var wire 32 a" pcpi_rd [31:0] $end
     $var wire  1 c" pcpi_ready $end
     $var wire 32 > pcpi_rs1 [31:0] $end
     $var wire 32 ? pcpi_rs2 [31:0] $end
     $var wire  1 A" pcpi_timeout $end
     $var wire  4 z" pcpi_timeout_counter [3:0] $end
     $var wire  1 < pcpi_valid $end
     $var wire  1 b" pcpi_wait $end
     $var wire  1 `" pcpi_wr $end
     $var wire  1 "! prefetched_high_word $end
     $var wire 64 {! q_ascii_instr [63:0] $end
     $var wire 32 }! q_insn_imm [31:0] $end
     $var wire 32 ~! q_insn_opcode [31:0] $end
     $var wire  5 #" q_insn_rd [4:0] $end
     $var wire  5 !" q_insn_rs1 [4:0] $end
     $var wire  5 "" q_insn_rs2 [4:0] $end
     $var wire 32 I reg_next_pc [31:0] $end
     $var wire 32 > reg_op1 [31:0] $end
     $var wire 32 ? reg_op2 [31:0] $end
     $var wire 32 J reg_out [31:0] $end
     $var wire 32 H reg_pc [31:0] $end
     $var wire  5 K reg_sh [4:0] $end
     $var wire 32 g" regfile_size [31:0] $end
     $var wire 32 h" regindex_bits [31:0] $end
     $var wire  1 W" resetn $end
     $var wire  1 5" set_mem_do_rdata $end
     $var wire  1 4" set_mem_do_rinst $end
     $var wire  1 6" set_mem_do_wdata $end
     $var wire 32 T timer [31:0] $end
     $var wire 36 B trace_data [35:0] $end
     $var wire  1 A trace_valid $end
     $var wire  1 8 trap $end
    $upscope $end
    $scope module ram $end
     $var wire 32 |" WORDS [31:0] $end
     $var wire 10 U" addr [9:0] $end
     $var wire  1 V" clk $end
     $var wire 32 0 mem_addr [31:0] $end
     $var wire  1 - mem_valid $end
     $var wire 32 1 mem_wdata [31:0] $end
     $var wire  4 2 mem_wstrb [3:0] $end
     $var wire 32 6 rdata [31:0] $end
     $var wire  1 7 ready $end
    $upscope $end
   $upscope $end
  $upscope $end
 $upscope $end
$enddefinitions $end


#0
b00000000000000000000000000000000 #
0$
0%
b00000000000000000000000000000000 &
0'
b00000000000000000000000000000000 (
0)
b00000000000000000000000000000000 *
b000000000000000000000000000000000 +
0-
0.
0/
b00000000000000000000000000000000 0
b00000000000000000000000000000000 1
b0000 2
03
04
05
b00000000000000000000000000000000 6
07
08
b00000000000000000000000000000000 9
b00000000000000000000000000000000 :
b1111 ;
0<
b00000000000000000000000000000000 =
b00000000000000000000000000000000 >
b00000000000000000000000000000000 ?
b00000000000000000000000000000000 @
0A
b000000000000000000000000000000000000 B
b0000000000000000000000000000000000000000000000000000000000000000 D
b0000000000000000000000000000000000000000000000000000000000000000 F
b00000000000000000000000000000000 H
b00000000000000000000000000000000 I
b00000000000000000000000000000000 J
b00000 K
b00000000000000000000000000000000 L
b00000000000000000000000000000000 M
b00000000000000000000000000000000 N
b00000000000000000000000000000000 O
0P
0Q
b00000000000000000000000000000000 R
b00000000000000000000000000000000 S
b00000000000000000000000000000000 T
b00000000000000000000000000000000 U
b00000000000000000000000000000000 V
b00000000000000000000000000000000 W
b00000000000000000000000000000000 X
b00000000000000000000000000000000 Y
b00000000000000000000000000000000 Z
b00000000000000000000000000000000 [
b00000000000000000000000000000000 \
b00000000000000000000000000000000 ]
b00000000000000000000000000000000 ^
b00000000000000000000000000000000 _
b00000000000000000000000000000000 `
b00000000000000000000000000000000 a
b00000000000000000000000000000000 b
b00000000000000000000000000000000 c
b00000000000000000000000000000000 d
b00000000000000000000000000000000 e
b00000000000000000000000000000000 f
b00000000000000000000000000000000 g
b00000000000000000000000000000000 h
b00000000000000000000000000000000 i
b00000000000000000000000000000000 j
b00000000000000000000000000000000 k
b00000000000000000000000000000000 l
b00000000000000000000000000000000 m
b00000000000000000000000000000000 n
b00000000000000000000000000000000 o
b00000000000000000000000000000000 p
b00000000000000000000000000000000 q
b00000000000000000000000000000000 r
b00000000000000000000000000000000 s
b00000000000000000000000000000000 t
b00 u
b00 v
b00000000000000000000000000000000 w
0x
0y
0z
0{
0|
0}
0~
0!!
0"!
0#!
0$!
0%!
0&!
0'!
0(!
0)!
0*!
0+!
0,!
0-!
0.!
0/!
00!
01!
02!
03!
04!
05!
06!
07!
08!
09!
0:!
0;!
0<!
0=!
0>!
0?!
0@!
0A!
0B!
0C!
0D!
0E!
0F!
0G!
0H!
0I!
0J!
0K!
0L!
0M!
0N!
0O!
0P!
0Q!
0R!
0S!
0T!
1U!
b00000 V!
b00000 W!
b00000 X!
b00000000000000000000000000000000 Y!
b00000000000000000000000000000000 Z!
0[!
0\!
0]!
0^!
0_!
0`!
0a!
0b!
0c!
0d!
0e!
0f!
0g!
0h!
0i!
0j!
0k!
0l!
0m!
0n!
b0000000000000000000000000000000000000000000000000000000000000000 o!
b0000000000000000000000000000000000000000000000000000000000000000 q!
b00000000000000000000000000000000 s!
b00000 t!
b00000 u!
b00000 v!
b00000000000000000000000000000000 w!
b00000000000000000000000000000000 x!
0y!
0z!
b0000000000000000000000000000000000000000000000000000000000000000 {!
b00000000000000000000000000000000 }!
b00000000000000000000000000000000 ~!
b00000 !"
b00000 ""
b00000 #"
0$"
0%"
0&"
b0000000000000000000000000000000000000000000000000000000000000000 '"
b00000000000000000000000000000000 )"
b00000000000000000000000000000000 *"
b00000 +"
b00000 ,"
b00000 -"
b00000000 ."
b00 /"
b00000000000000000000000000000000000000000000000000000000000000000000000000000000000000000000000000000000000000000000000000000000 0"
04"
05"
06"
07"
08"
09"
0:"
0;"
0<"
0="
0>"
b00000 ?"
b00000000000000000000000000000000 @"
0A"
b00000000000000000000000000000000 B"
0C"
b00000000000000000000000000000000 D"
b00000000000000000000000000000000 E"
0F"
0G"
0H"
0I"
b00000000000000000000000000000000 J"
b00000000000000000000000000000000 K"
b00000000000000000000000000000000 L"
1M"
0N"
0O"
0P"
0Q"
b00000000000000000000000000000000 R"
b00000000000000000000000000000000 S"
b00000000000000000000000000000000 T"
b0000000000 U"
0V"
0W"
b00000000000000000000000000000000 X"
b000000000000000000000000000000000 Y"
0["
1\"
b00000000000000000000000000000000 ]"
b11111111111111111111111111111111 ^"
b00000000000000000000000000010000 _"
0`"
b00000000000000000000000000000000 a"
0b"
0c"
b00000000000000000000000000000000 d"
b00000000000000000000000000000001 e"
b00000000000000000000000000000010 f"
b00000000000000000000000000100000 g"
b00000000000000000000000000000101 h"
b000100000000000000000000000000000000 i"
b001000000000000000000000000000000000 k"
b100000000000000000000000000000000000 m"
b00000000000000000000000000000000 o"
0p"
b0000000000000000 q"
b10000000 r"
b01000000 s"
b00100000 t"
b00010000 u"
b00001000 v"
b00000100 w"
b00000010 x"
b00000001 y"
b0000 z"
b00000 {"
b00000000000000000000010000000000 |"
#20833
b11111111111111111111111111111111 R
b01000000 ."
b00000000000000000000000000000000000000000000000000000000000000000000000000000000000000000110011001100101011101000110001101101000 0"
1V"
#41666
0V"
#62499
1V"
#83332
0V"
#100000
1W"
#104165
1$
1y
1#!
1V"
#124998
0V"
#145831
0$
1-
1.
13
b01 u
1V"
#166664
0V"
#187497
b00000000000000010000000100010111 #
b00000000000000010000000100010111 &
b00000000000000010000000100010111 (
1)
1/
b00000000000000010000000100010111 6
17
1|
1!!
1V"
#208330
0V"
#229163
0)
0-
03
b00000000000000010000000100010111 L
b00 u
b00000000000000010000000100010111 w
0y
0|
0!!
0#!
1%!
0U!
b00010 V!
b00010 W!
b00000000000000010000000000000000 Z!
1[!
b0000000000000000000000000110000101110101011010010111000001100011 o!
1%"
1V"
#249996
0V"
#270829
1$
b00000000000000000000000000000100 9
b00000000000000000000000000000100 I
b00000000000000010000000100010111 M
b00000000000000000000000000000100 O
1x
1#!
b00000000000000010000000000000000 Y!
0[!
1\!
1`!
b0000000000000000000000000110000101110101011010010111000001100011 q!
b00000000000000010000000000000000 s!
b00010 t!
b00010 v!
1$"
0%"
1&"
b00100000 ."
b00000000000000000000000000000000000000000000000000000000000000000000000000000000011011000110010001011111011100100111001100110001 0"
b00010 ?"
1V"
#291662
0V"
#312495
0$
1)
1-
b00000000000000000000000000000100 0
13
b00000000000000010000000000000000 :
b00000000000000010000000000000000 ?
b01 u
1y
1|
0\!
1f!
b0000000000000000000000000110000101110101011010010111000001100011 {!
b00000000000000010000000000000000 }!
b00000000000000010000000100010111 ~!
b00010 !"
b00010 #"
0$"
b0000000000000000000000000110000101110101011010010111000001100011 '"
b00000000000000010000000000000000 )"
b00000000000000010000000100010111 *"
b00010 +"
b00010 -"
b00001000 ."
b00000000000000000000000000000000000000000000000000000000000000000000000000000000000000000000000001100101011110000110010101100011 0"
b00000000000000010000000000000000 D"
b00000000000000010000000000000000 J"
0M"
1N"
1O"
b0000000001 U"
1V"
#333328
0V"
#354161
b00000000000000010000000100010011 #
b00000000000000010000000100010011 &
0)
0-
03
b00000000000000010000000100010011 6
b00000000000000000000000000000000 9
b00000000000000010000000000000000 J
b00 u
0x
0y
0|
0#!
1[!
1%"
b01000000 ."
b00000000000000000000000000000000000000000000000000000000000000000000000000000000000000000110011001100101011101000110001101101000 0"
17"
18"
b00000000000000010000000000000000 E"
1Q"
b00000000000000010000000000000000 R"
1V"
#374994
0V"
#395827
1$
b00000000000000000000000000001000 9
b00000000000000000000000000000100 H
b00000000000000000000000000001000 I
b00000000000000000000000000000000 J
b00000000000000000000000000000100 N
b00000000000000000000000000001000 O
b00000000000000010000000000000000 W
1x
1#!
0[!
1\!
0f!
1$"
0%"
b00100000 ."
b00000000000000000000000000000000000000000000000000000000000000000000000000000000011011000110010001011111011100100111001100110001 0"
07"
08"
b00000000000000000000000000000000 D"
0Q"
b00000000000000000000000000000000 R"
b00000000000000010000000000000000 S"
1V"
#416660
0V"
#437493
0$
b00000000000000010000000100010011 (
1)
1-
b00000000000000000000000000001000 0
13
b00000000000000000000000000000100 >
b01 u
1y
1|
0\!
1f!
0$"
b00001000 ."
b00000000000000000000000000000000000000000000000000000000000000000000000000000000000000000000000001100101011110000110010101100011 0"
b00000000000000010000000000000100 D"
b00000000000000000000000000000000 E"
b00000000000000010000000000000100 J"
b00000000000000000000000000000100 K"
b00000000000000000000000000000100 L"
b0000000010 U"
1V"
#458326
0V"
#479159
b00000110110000000000010100010011 #
b00000110110000000000010100010011 &
0)
0-
03
b00000110110000000000010100010011 6
b00000000000000000000000000000100 9
b00000000000000010000000000000100 J
b00000000000000010000000100010011 L
b00 u
b00000000000000010000000100010011 w
0x
0y
0|
0#!
0%!
1U!
1[!
1k!
b0000000000000000000000000000000000000000000000000000000000000000 o!
1%"
b01000000 ."
b00000000000000000000000000000000000000000000000000000000000000000000000000000000000000000110011001100101011101000110001101101000 0"
17"
18"
b00000000000000010000000000000100 E"
1Q"
b00000000000000010000000000000100 R"
1V"
#499992
0V"
#520825
1$
b00000000000000000000000000001100 9
b00000000000000000000000000001000 H
b00000000000000000000000000001100 I
b00000000000000000000000000000000 J
b00000000000000010000000100010011 M
b00000000000000000000000000001000 N
b00000000000000000000000000001100 O
b00000000000000010000000000000100 W
1x
1#!
16!
0U!
b00000000000000000000000000000000 Y!
0[!
1\!
0`!
1c!
0f!
b0000000000000000000000000000000001100001011001000110010001101001 o!
b0000000000000000000000000000000001100001011001000110010001101001 q!
b00000000000000000000000000000000 s!
1$"
0%"
b00100000 ."
b00000000000000000000000000000000000000000000000000000000000000000000000000000000011011000110010001011111011100100111001100110001 0"
07"
08"
b00000000000000000000000000000000 D"
0Q"
b00000000000000000000000000000000 R"
b00000000000000010000000000000100 S"
1V"
#541658
0V"
#562491
0$
b00000110110000000000010100010011 (
1)
1-
b00000000000000000000000000001100 0
13
b00000000000000000000000000000000 :
b00000000000000010000000000000100 >
b00000000000000000000000000000000 ?
b01 u
1y
1|
0\!
1f!
b00000000000000010000000000000100 w!
1y!
b0000000000000000000000000000000001100001011001000110010001101001 {!
b00000000000000000000000000000000 }!
b00000000000000010000000100010011 ~!
0$"
b0000000000000000000000000000000001100001011001000110010001101001 '"
b00000000000000000000000000000000 )"
b00000000000000010000000100010011 *"
b00001000 ."
b00000000000000000000000000000000000000000000000000000000000000000000000000000000000000000000000001100101011110000110010101100011 0"
b00000000000000010000000000000100 D"
b00000000000000000000000000000000 E"
b00000000000000010000000000000100 K"
b00000000000000010000000000000100 L"
0N"
0O"
b0000000011 U"
1V"
#583324
0V"
#604157
b00000110110000000000010110010011 #
b00000110110000000000010110010011 &
0)
0-
03
b00000110110000000000010110010011 6
b00000000000000010000000000000100 9
b00000000000000000000000000001000 J
b00000110110000000000010100010011 L
b00 u
b00000110110000000000010100010011 w
0x
0y
0|
0#!
b01010 V!
b00000 W!
b01100 X!
b00000000000000000000000001101100 Z!
1[!
1%"
b01000000 ."
b00000000000000000000000000000000000000000000000000000000000000000000000000000000000000000110011001100101011101000110001101101000 0"
17"
18"
b00000000000000010000000000000100 E"
1Q"
b00000000000000010000000000000100 R"
b00000000000000000000000000000000 S"
1V"
#624990
0V"
#645823
1$
b00000000000000000000000000010000 9
b00000000000000000000000000001100 H
b00000000000000000000000000010000 I
b00000000000000000000000000000000 J
b00000110110000000000010100010011 M
b00000000000000000000000000001100 N
b00000000000000000000000000010000 O
1x
1#!
b00000000000000000000000001101100 Y!
0[!
1\!
0f!
b00000000000000000000000001101100 s!
b00000 t!
b01100 u!
b01010 v!
b00000000000000000000000000000000 w!
0y!
1$"
0%"
b00100000 ."
b00000000000000000000000000000000000000000000000000000000000000000000000000000000011011000110010001011111011100100111001100110001 0"
07"
08"
b01010 ?"
b00000000000000000000000000000000 D"
0Q"
b00000000000000000000000000000000 R"
1V"
#666656
0V"
#687489
0$
b00000110110000000000010110010011 (
1)
1-
b00000000000000000000000000010000 0
13
b00000000000000000000000001101100 :
b00000000000000000000000000000000 >
b00000000000000000000000001101100 ?
b01 u
1y
1|
0\!
1f!
1y!
b00000000000000000000000001101100 }!
b00000110110000000000010100010011 ~!
b00000 !"
b01100 ""
b01010 #"
0$"
b00000000000000000000000001101100 )"
b00000110110000000000010100010011 *"
b00000 +"
b01100 ,"
b01010 -"
b00001000 ."
b00000000000000000000000000000000000000000000000000000000000000000000000000000000000000000000000001100101011110000110010101100011 0"
b00000000000000000000000001101100 D"
b00000000000000000000000000000000 E"
b00000000000000000000000001101100 J"
b00000000000000000000000000000000 K"
b00000000000000000000000000000000 L"
1N"
1O"
b0000000100 U"
1V"
#708322
0V"
#729155
b00000000101101010111100001100011 #
b00000000101101010111100001100011 &
0)
0-
03
b00000000101101010111100001100011 6
b00000000000000000000000000000000 9
b00000000000000000000000001111000 J
b00000110110000000000010110010011 L
b00 u
b00000110110000000000010110010011 w
0x
0y
0|
0#!
b01011 V!
1[!
1%"
b01000000 ."
b00000000000000000000000000000000000000000000000000000000000000000000000000000000000000000110011001100101011101000110001101101000 0"
17"
18"
b00000000000000000000000001101100 E"
1Q"
b00000000000000000000000001101100 R"
1V"
#749988
0V"
#770821
1$
b00000000000000000000000000010100 9
b00000000000000000000000000010000 H
b00000000000000000000000000010100 I
b00000000000000000000000000000000 J
b00000110110000000000010110010011 M
b00000000000000000000000000010000 N
b00000000000000000000000000010100 O
b00000000000000000000000001101100 _
1x
1#!
0[!
1\!
0f!
b01011 v!
0y!
1$"
0%"
b00100000 ."
b00000000000000000000000000000000000000000000000000000000000000000000000000000000011011000110010001011111011100100111001100110001 0"
07"
08"
b01011 ?"
b00000000000000000000000000000000 D"
0Q"
b00000000000000000000000000000000 R"
1V"
#791654
0V"
#812487
0$
b00000000101101010111100001100011 (
1)
1-
b00000000000000000000000000010100 0
13
b01 u
1y
1|
0\!
1f!
1y!
b00000110110000000000010110010011 ~!
b01011 #"
0$"
b00000110110000000000010110010011 *"
b01011 -"
b00001000 ."
b00000000000000000000000000000000000000000000000000000000000000000000000000000000000000000000000001100101011110000110010101100011 0"
b00000000000000000000000001101100 D"
b00000000000000000000000000000000 E"
b0000000101 U"
1V"
#833320
0V"
