scripts/wave_nop.vcd
$version Generated by VerilatedVcd $end
$timescale 1ps $end

 $scope module TOP $end
  $scope module picorv32_tb $end
   $var wire  1 G" clk $end
   $var wire 32 & mem_addr [31:0] $end
   $var wire  1 % mem_instr $end
   $var wire 32 N" mem_rdata [31:0] $end
   $var wire  1 I" mem_ready $end
   $var wire  1 $ mem_valid $end
   $var wire 32 ' mem_wdata [31:0] $end
   $var wire  4 ( mem_wstrb [3:0] $end
   $var wire  1 H" resetn $end
   $var wire  1 # trap $end
   $scope module dut $end
    $var wire  1 O" BARREL_SHIFTER [0:0] $end
    $var wire  1 P" CATCH_ILLINSN [0:0] $end
    $var wire  1 P" CATCH_MISALIGN [0:0] $end
    $var wire  1 O" COMPRESSED_ISA [0:0] $end
    $var wire  1 O" ENABLE_COUNTERS [0:0] $end
    $var wire  1 P" ENABLE_COUNTERS64 [0:0] $end
    $var wire  1 O" ENABLE_DIV [0:0] $end
    $var wire  1 O" ENABLE_FAST_MUL [0:0] $end
    $var wire  1 O" ENABLE_IRQ [0:0] $end
    $var wire  1 P" ENABLE_IRQ_QREGS [0:0] $end
    $var wire  1 P" ENABLE_IRQ_TIMER [0:0] $end
    $var wire  1 O" ENABLE_MUL [0:0] $end
    $var wire  1 O" ENABLE_PCPI [0:0] $end
    $var wire  1 P" ENABLE_REGS_16_31 [0:0] $end
    $var wire  1 P" ENABLE_REGS_DUALPORT [0:0] $end
    $var wire  1 O" ENABLE_TRACE [0:0] $end
    $var wire 32 R" LATCHED_IRQ [31:0] $end
    $var wire  1 O" LATCHED_MEM_RDATA [0:0] $end
    $var wire 32 Q" MASKED_IRQ [31:0] $end
    $var wire 32 S" PROGADDR_IRQ [31:0] $end
    $var wire 32 Q" PROGADDR_RESET [31:0] $end
    $var wire  1 O" REGS_INIT_ZERO [0:0] $end
    $var wire 32 R" STACKADDR [31:0] $end
    $var wire 36 `" TRACE_ADDR [35:0] $end
    $var wire 36 ^" TRACE_BRANCH [35:0] $end
    $var wire 36 b" TRACE_IRQ [35:0] $end
    $var wire  1 O" TWO_CYCLE_ALU [0:0] $end
    $var wire  1 O" TWO_CYCLE_COMPARE [0:0] $end
    $var wire  1 P" TWO_STAGE_SHIFT [0:0] $end
    $var wire  1 O" WITH_PCPI [0:0] $end
    $var wire 32 <" alu_add_sub [31:0] $end
    $var wire  1 ?" alu_eq $end
    $var wire  1 A" alu_lts $end
    $var wire  1 @" alu_ltu $end
    $var wire 32 6" alu_out [31:0] $end
    $var wire  1 8" alu_out_0 $end
    $var wire  1 9" alu_out_0_q $end
    $var wire 32 7" alu_out_q [31:0] $end
    $var wire 32 =" alu_shl [31:0] $end
    $var wire 32 >" alu_shr [31:0] $end
    $var wire  1 :" alu_wait $end
    $var wire  1 ;" alu_wait_2 $end
    $var wire 64 w! cached_ascii_instr [63:0] $end
    $var wire 32 y! cached_insn_imm [31:0] $end
    $var wire 32 z! cached_insn_opcode [31:0] $end
    $var wire  5 }! cached_insn_rd [4:0] $end
    $var wire  5 {! cached_insn_rs1 [4:0] $end
    $var wire  5 |! cached_insn_rs2 [4:0] $end
    $var wire  1 L" clear_prefetched_high_word $end
    $var wire  1 B" clear_prefetched_high_word_q $end
    $var wire  1 G" clk $end
    $var wire  1 Q! compressed_instr $end
    $var wire 64 4 count_cycle [63:0] $end
    $var wire 64 6 count_instr [63:0] $end
    $var wire  8 ~! cpu_state [7:0] $end
    $var wire  8 k" cpu_state_exec [7:0] $end
    $var wire  8 h" cpu_state_fetch [7:0] $end
    $var wire  8 i" cpu_state_ld_rs1 [7:0] $end
    $var wire  8 j" cpu_state_ld_rs2 [7:0] $end
    $var wire  8 n" cpu_state_ldmem [7:0] $end
    $var wire  8 l" cpu_state_shift [7:0] $end
    $var wire  8 m" cpu_state_stmem [7:0] $end
    $var wire  8 g" cpu_state_trap [7:0] $end
    $var wire 32 E cpuregs[0] [31:0] $end
    $var wire 32 O cpuregs[10] [31:0] $end
    $var wire 32 P cpuregs[11] [31:0] $end
    $var wire 32 Q cpuregs[12] [31:0] $end
    $var wire 32 R cpuregs[13] [31:0] $end
    $var wire 32 S cpuregs[14] [31:0] $end
    $var wire 32 T cpuregs[15] [31:0] $end
    $var wire 32 U cpuregs[16] [31:0] $end
    $var wire 32 V cpuregs[17] [31:0] $end
    $var wire 32 W cpuregs[18] [31:0] $end
    $var wire 32 X cpuregs[19] [31:0] $end
    $var wire 32 F cpuregs[1] [31:0] $end
    $var wire 32 Y cpuregs[20] [31:0] $end
    $var wire 32 Z cpuregs[21] [31:0] $end
    $var wire 32 [ cpuregs[22] [31:0] $end
    $var wire 32 \ cpuregs[23] [31:0] $end
    $var wire 32 ] cpuregs[24] [31:0] $end
    $var wire 32 ^ cpuregs[25] [31:0] $end
    $var wire 32 _ cpuregs[26] [31:0] $end
    $var wire 32 ` cpuregs[27] [31:0] $end
    $var wire 32 a cpuregs[28] [31:0] $end
    $var wire 32 b cpuregs[29] [31:0] $end
    $var wire 32 G cpuregs[2] [31:0] $end
    $var wire 32 c cpuregs[30] [31:0] $end
    $var wire 32 d cpuregs[31] [31:0] $end
    $var wire 32 H cpuregs[3] [31:0] $end
    $var wire 32 I cpuregs[4] [31:0] $end
    $var wire 32 J cpuregs[5] [31:0] $end
    $var wire 32 K cpuregs[6] [31:0] $end
    $var wire 32 L cpuregs[7] [31:0] $end
    $var wire 32 M cpuregs[8] [31:0] $end
    $var wire 32 N cpuregs[9] [31:0] $end
    $var wire 32 E" cpuregs_rs1 [31:0] $end
    $var wire 32 F" cpuregs_rs2 [31:0] $end
    $var wire 32 D" cpuregs_wrdata [31:0] $end
    $var wire  1 C" cpuregs_write $end
    $var wire 32 2" current_pc [31:0] $end
    $var wire 64 c! dbg_ascii_instr [63:0] $end
    $var wire 128 "" dbg_ascii_state [127:0] $end
    $var wire 32 > dbg_insn_addr [31:0] $end
    $var wire 32 e! dbg_insn_imm [31:0] $end
    $var wire 32 = dbg_insn_opcode [31:0] $end
    $var wire  5 h! dbg_insn_rd [4:0] $end
    $var wire  5 f! dbg_insn_rs1 [4:0] $end
    $var wire  5 g! dbg_insn_rs2 [4:0] $end
    $var wire 32 & dbg_mem_addr [31:0] $end
    $var wire  1 % dbg_mem_instr $end
    $var wire 32 N" dbg_mem_rdata [31:0] $end
    $var wire  1 I" dbg_mem_ready $end
    $var wire  1 $ dbg_mem_valid $end
    $var wire 32 ' dbg_mem_wdata [31:0] $end
    $var wire  4 ( dbg_mem_wstrb [3:0] $end
    $var wire  1 t! dbg_next $end
    $var wire 32 i! dbg_rs1val [31:0] $end
    $var wire  1 k! dbg_rs1val_valid $end
    $var wire 32 j! dbg_rs2val [31:0] $end
    $var wire  1 l! dbg_rs2val_valid $end
    $var wire  1 v! dbg_valid_insn $end
    $var wire 32 K! decoded_imm [31:0] $end
    $var wire 32 L! decoded_imm_j [31:0] $end
    $var wire  5 H! decoded_rd [4:0] $end
    $var wire  5 p" decoded_rs [4:0] $end
    $var wire  5 I! decoded_rs1 [4:0] $end
    $var wire  5 J! decoded_rs2 [4:0] $end
    $var wire  1 O! decoder_pseudo_trigger $end
    $var wire  1 P! decoder_pseudo_trigger_q $end
    $var wire  1 M! decoder_trigger $end
    $var wire  1 N! decoder_trigger_q $end
    $var wire  1 5" do_waitirq $end
    $var wire 32 0 eoi [31:0] $end
    $var wire 32 d" i [31:0] $end
    $var wire  1 1! instr_add $end
    $var wire  1 (! instr_addi $end
    $var wire  1 :! instr_and $end
    $var wire  1 -! instr_andi $end
    $var wire  1 u instr_auipc $end
    $var wire  1 x instr_beq $end
    $var wire  1 { instr_bge $end
    $var wire  1 } instr_bgeu $end
    $var wire  1 z instr_blt $end
    $var wire  1 | instr_bltu $end
    $var wire  1 y instr_bne $end
    $var wire  1 ?! instr_ecall_ebreak $end
    $var wire  1 @! instr_fence $end
    $var wire  1 A! instr_getq $end
    $var wire  1 v instr_jal $end
    $var wire  1 w instr_jalr $end
    $var wire  1 ~ instr_lb $end
    $var wire  1 #! instr_lbu $end
    $var wire  1 !! instr_lh $end
    $var wire  1 $! instr_lhu $end
    $var wire  1 t instr_lui $end
    $var wire  1 "! instr_lw $end
    $var wire  1 D! instr_maskirq $end
    $var wire  1 9! instr_or $end
    $var wire  1 ,! instr_ori $end
    $var wire  1 ;! instr_rdcycle $end
    $var wire  1 <! instr_rdcycleh $end
    $var wire  1 =! instr_rdinstr $end
    $var wire  1 >! instr_rdinstrh $end
    $var wire  1 C! instr_retirq $end
    $var wire  1 %! instr_sb $end
    $var wire  1 B! instr_setq $end
    $var wire  1 &! instr_sh $end
    $var wire  1 3! instr_sll $end
    $var wire  1 .! instr_slli $end
    $var wire  1 4! instr_slt $end
    $var wire  1 )! instr_slti $end
    $var wire  1 *! instr_sltiu $end
    $var wire  1 5! instr_sltu $end
    $var wire  1 8! instr_sra $end
    $var wire  1 0! instr_srai $end
    $var wire  1 7! instr_srl $end
    $var wire  1 /! instr_srli $end
    $var wire  1 2! instr_sub $end
    $var wire  1 '! instr_sw $end
    $var wire  1 F! instr_timer $end
    $var wire  1 G! instr_trap $end
    $var wire  1 E! instr_waitirq $end
    $var wire  1 6! instr_xor $end
    $var wire  1 +! instr_xori $end
    $var wire 32 X" irq [31:0] $end
    $var wire  1 A irq_active $end
    $var wire 32 [" irq_buserror [31:0] $end
    $var wire  1 @ irq_delay $end
    $var wire 32 Z" irq_ebreak [31:0] $end
    $var wire 32 B irq_mask [31:0] $end
    $var wire 32 C irq_pending [31:0] $end
    $var wire  2 !" irq_state [1:0] $end
    $var wire 32 Y" irq_timer [31:0] $end
    $var wire 32 \" irqregs_offset [31:0] $end
    $var wire  1 ]! is_alu_reg_imm $end
    $var wire  1 ^! is_alu_reg_reg $end
    $var wire  1 [! is_beq_bne_blt_bge_bltu_bgeu $end
    $var wire  1 _! is_compare $end
    $var wire  1 U! is_jalr_addi_slti_sltiu_xori_ori_andi $end
    $var wire  1 S! is_lb_lh_lw_lbu_lhu $end
    $var wire  1 \! is_lbu_lhu_lw $end
    $var wire  1 R! is_lui_auipc_jal $end
    $var wire  1 X! is_lui_auipc_jal_jalr_addi_add_sub $end
    $var wire  1 `! is_rdcycle_rdcycleh_rdinstr_rdinstrh $end
    $var wire  1 V! is_sb_sh_sw $end
    $var wire  1 W! is_sll_srl_sra $end
    $var wire  1 T! is_slli_srli_srai $end
    $var wire  1 Y! is_slti_blt_slt $end
    $var wire  1 Z! is_sltiu_bltu_sltu $end
    $var wire  1 p last_mem_valid $end
    $var wire  1 +" latched_branch $end
    $var wire  1 ," latched_compr $end
    $var wire  1 0" latched_is_lb $end
    $var wire  1 /" latched_is_lh $end
    $var wire  1 ." latched_is_lu $end
    $var wire  5 1" latched_rd [4:0] $end
    $var wire  1 *" latched_stalu $end
    $var wire  1 )" latched_store $end
    $var wire  1 -" latched_trace $end
    $var wire  1 u! launch_next_insn $end
    $var wire 16 f" mem_16bit_buffer [15:0] $end
    $var wire 32 & mem_addr [31:0] $end
    $var wire  1 s mem_busy $end
    $var wire  1 i mem_do_prefetch $end
    $var wire  1 k mem_do_rdata $end
    $var wire  1 j mem_do_rinst $end
    $var wire  1 l mem_do_wdata $end
    $var wire  1 M" mem_done $end
    $var wire  1 % mem_instr $end
    $var wire 32 ) mem_la_addr [31:0] $end
    $var wire  1 e" mem_la_firstword $end
    $var wire  1 o mem_la_firstword_reg $end
    $var wire  1 e" mem_la_firstword_xfer $end
    $var wire  1 J" mem_la_read $end
    $var wire  1 n mem_la_secondword $end
    $var wire  1 e" mem_la_use_prefetched_high_word $end
    $var wire 32 * mem_la_wdata [31:0] $end
    $var wire  1 K" mem_la_write $end
    $var wire  4 + mem_la_wstrb [3:0] $end
    $var wire 32 N" mem_rdata [31:0] $end
    $var wire 32 r mem_rdata_latched [31:0] $end
    $var wire 32 r mem_rdata_latched_noshuffle [31:0] $end
    $var wire 32 h mem_rdata_q [31:0] $end
    $var wire 32 g mem_rdata_word [31:0] $end
    $var wire  1 I" mem_ready $end
    $var wire  2 e mem_state [1:0] $end
    $var wire  1 $ mem_valid $end
    $var wire 32 ' mem_wdata [31:0] $end
    $var wire  2 f mem_wordsize [1:0] $end
    $var wire  4 ( mem_wstrb [3:0] $end
    $var wire  1 m mem_xfer $end
    $var wire 64 a! new_ascii_instr [63:0] $end
    $var wire 32 < next_insn_opcode [31:0] $end
    $var wire 32 4" next_irq_pending [31:0] $end
    $var wire 32 ? next_pc [31:0] $end
    $var wire 32 Q" pcpi_div_rd [31:0] $end
    $var wire  1 e" pcpi_div_ready $end
    $var wire  1 e" pcpi_div_wait $end
    $var wire  1 e" pcpi_div_wr $end
    $var wire 32 - pcpi_insn [31:0] $end
    $var wire 32 Q" pcpi_int_rd [31:0] $end
    $var wire  1 e" pcpi_int_ready $end
    $var wire  1 e" pcpi_int_wait $end
    $var wire  1 e" pcpi_int_wr $end
    $var wire 32 Q" pcpi_mul_rd [31:0] $end
    $var wire  1 e" pcpi_mul_ready $end
    $var wire  1 e" pcpi_mul_wait $end
    $var wire  1 e" pcpi_mul_wr $end
    $var wire 32 U" pcpi_rd [31:0] $end
    $var wire  1 W" pcpi_ready $end
    $var wire 32 . pcpi_rs1 [31:0] $end
    $var wire 32 / pcpi_rs2 [31:0] $end
    $var wire  1 3" pcpi_timeout $end
    $var wire  4 o" pcpi_timeout_counter [3:0] $end
    $var wire  1 , pcpi_valid $end
    $var wire  1 V" pcpi_wait $end
    $var wire  1 T" pcpi_wr $end
    $var wire  1 q prefetched_high_word $end
    $var wire 64 m! q_ascii_instr [63:0] $end
    $var wire 32 o! q_insn_imm [31:0] $end
    $var wire 32 p! q_insn_opcode [31:0] $end
    $var wire  5 s! q_insn_rd [4:0] $end
    $var wire  5 q! q_insn_rs1 [4:0] $end
    $var wire  5 r! q_insn_rs2 [4:0] $end
    $var wire 32 9 reg_next_pc [31:0] $end
    $var wire 32 . reg_op1 [31:0] $end
    $var wire 32 / reg_op2 [31:0] $end
    $var wire 32 : reg_out [31:0] $end
    $var wire 32 8 reg_pc [31:0] $end
    $var wire  5 ; reg_sh [4:0] $end
    $var wire 32 \" regfile_size [31:0] $end
    $var wire 32 ]" regindex_bits [31:0] $end
    $var wire  1 H" resetn $end
    $var wire  1 '" set_mem_do_rdata $end
    $var wire  1 &" set_mem_do_rinst $end
    $var wire  1 (" set_mem_do_wdata $end
    $var wire 32 D timer [31:0] $end
    $var wire 36 2 trace_data [35:0] $end
    $var wire  1 1 trace_valid $end
    $var wire  1 # trap $end
   $upscope $end
  $upscope $end
 $upscope $end
$enddefinitions $end


#0
0#
0$
0%
b00000000000000000000000000000000 &
b00000000000000000000000000000000 '
b0000 (
b00000000000000000000000000000000 )
b00000000000000000000000000000000 *
b1111 +
0,
b00000000000000000000000000000000 -
b00000000000000000000000000000000 .
b00000000000000000000000000000000 /
b00000000000000000000000000000000 0
01
b000000000000000000000000000000000000 2
b0000000000000000000000000000000000000000000000000000000000000000 4
b0000000000000000000000000000000000000000000000000000000000000000 6
b00000000000000000000000000000000 8
b00000000000000000000000000000000 9
b00000000000000000000000000000000 :
b00000 ;
b00000000000000000000000000000000 <
b00000000000000000000000000000000 =
b00000000000000000000000000000000 >
b00000000000000000000000000000000 ?
0@
0A
b00000000000000000000000000000000 B
b00000000000000000000000000000000 C
b00000000000000000000000000000000 D
b00000000000000000000000000000000 E
b00000000000000000000000000000000 F
b00000000000000000000000000000000 G
b00000000000000000000000000000000 H
b00000000000000000000000000000000 I
b00000000000000000000000000000000 J
b00000000000000000000000000000000 K
b00000000000000000000000000000000 L
b00000000000000000000000000000000 M
b00000000000000000000000000000000 N
b00000000000000000000000000000000 O
b00000000000000000000000000000000 P
b00000000000000000000000000000000 Q
b00000000000000000000000000000000 R
b00000000000000000000000000000000 S
b00000000000000000000000000000000 T
b00000000000000000000000000000000 U
b00000000000000000000000000000000 V
b00000000000000000000000000000000 W
b00000000000000000000000000000000 X
b00000000000000000000000000000000 Y
b00000000000000000000000000000000 Z
b00000000000000000000000000000000 [
b00000000000000000000000000000000 \
b00000000000000000000000000000000 ]
b00000000000000000000000000000000 ^
b00000000000000000000000000000000 _
b00000000000000000000000000000000 `
b00000000000000000000000000000000 a
b00000000000000000000000000000000 b
b00000000000000000000000000000000 c
b00000000000000000000000000000000 d
b00 e
b00 f
b00000000000000000000000000010011 g
b00000000000000000000000000000000 h
0i
0j
0k
0l
0m
0n
0o
0p
0q
b00000000000000000000000000000000 r
0s
0t
0u
0v
0w
0x
0y
0z
0{
0|
0}
0~
0!!
0"!
0#!
0$!
0%!
0&!
0'!
0(!
0)!
0*!
0+!
0,!
0-!
0.!
0/!
00!
01!
02!
03!
04!
05!
06!
07!
08!
09!
0:!
0;!
0<!
0=!
0>!
0?!
0@!
0A!
0B!
0C!
0D!
0E!
0F!
1G!
b00000 H!
b00000 I!
b00000 J!
b00000000000000000000000000000000 K!
b00000000000000000000000000000000 L!
0M!
0N!
0O!
0P!
0Q!
0R!
0S!
0T!
0U!
0V!
0W!
0X!
0Y!
0Z!
0[!
0\!
0]!
0^!
0_!
0`!
b0000000000000000000000000000000000000000000000000000000000000000 a!
b0000000000000000000000000000000000000000000000000000000000000000 c!
b00000000000000000000000000000000 e!
b00000 f!
b00000 g!
b00000 h!
b00000000000000000000000000000000 i!
b00000000000000000000000000000000 j!
0k!
0l!
b0000000000000000000000000000000000000000000000000000000000000000 m!
b00000000000000000000000000000000 o!
b00000000000000000000000000000000 p!
b00000 q!
b00000 r!
b00000 s!
0t!
0u!
0v!
b0000000000000000000000000000000000000000000000000000000000000000 w!
b00000000000000000000000000000000 y!
b00000000000000000000000000000000 z!
b00000 {!
b00000 |!
b00000 }!
b00000000 ~!
b00 !"
b00000000000000000000000000000000000000000000000000000000000000000000000000000000000000000000000000000000000000000000000000000000 ""
0&"
0'"
0("
0)"
0*"
0+"
0,"
0-"
0."
0/"
00"
b00000 1"
b00000000000000000000000000000000 2"
03"
b00000000000000000000000000000000 4"
05"
b00000000000000000000000000000000 6"
b00000000000000000000000000000000 7"
08"
09"
0:"
0;"
b00000000000000000000000000000000 <"
b00000000000000000000000000000000 ="
b00000000000000000000000000000000 >"
1?"
0@"
0A"
0B"
0C"
b00000000000000000000000000000000 D"
b00000000000000000000000000000000 E"
b00000000000000000000000000000000 F"
0G"
0H"
1I"
0J"
0K"
0L"
0M"
b00000000000000000000000000010011 N"
0O"
1P"
b00000000000000000000000000000000 Q"
b11111111111111111111111111111111 R"
b00000000000000000000000000010000 S"
0T"
b00000000000000000000000000000000 U"
0V"
0W"
b00000000000000000000000000000000 X"
b00000000000000000000000000000000 Y"
b00000000000000000000000000000001 Z"
b00000000000000000000000000000010 ["
b00000000000000000000000000100000 \"
b00000000000000000000000000000101 ]"
b000100000000000000000000000000000000 ^"
b001000000000000000000000000000000000 `"
b100000000000000000000000000000000000 b"
b00000000000000000000000000000000 d"
0e"
b0000000000000000 f"
b10000000 g"
b01000000 h"
b00100000 i"
b00010000 j"
b00001000 k"
b00000100 l"
b00000010 m"
b00000001 n"
b0000 o"
b00000 p"
#5000
b11111111111111111111111111111111 B
b01000000 ~!
b00000000000000000000000000000000000000000000000000000000000000000000000000000000000000000110011001100101011101000110001101101000 ""
1G"
#10000
0G"
#15000
1G"
#20000
0G"
1H"
#25000
1j
1s
1G"
1J"
#30000
0G"
#35000
1$
1%
b01 e
1m
b00000000000000000000000000010011 r
1G"
0J"
1M"
#40000
0G"
#45000
0$
b00000000000000000000000000010011 <
b00 e
b00000000000000000000000000010011 h
0j
0m
0s
1M!
1]!
1u!
1G"
0M"
#50000
0G"
#55000
b00000000000000000000000000000100 )
b00000000000000000000000000000100 9
b00000000000000000000000000010011 =
b00000000000000000000000000000100 ?
1i
1s
1(!
0G!
0M!
1N!
1U!
b0000000000000000000000000000000001100001011001000110010001101001 a!
b0000000000000000000000000000000001100001011001000110010001101001 c!
1t!
0u!
1v!
b00100000 ~!
b00000000000000000000000000000000000000000000000000000000000000000000000000000000011011000110010001011111011100100111001100110001 ""
1G"
1J"
#60000
0G"
#65000
1$
b00000000000000000000000000000100 &
b01 e
1j
1m
0N!
1X!
1k!
b0000000000000000000000000000000001100001011001000110010001101001 m!
b00000000000000000000000000010011 p!
0t!
b0000000000000000000000000000000001100001011001000110010001101001 w!
b00000000000000000000000000010011 z!
b00001000 ~!
b00000000000000000000000000000000000000000000000000000000000000000000000000000000000000000000000001100101011110000110010101100011 ""
1G"
0J"
1M"
#70000
0G"
#75000
0$
b00000000000000000000000000000000 )
b00 e
0i
0j
0m
0s
1M!
1u!
b01000000 ~!
b00000000000000000000000000000000000000000000000000000000000000000000000000000000000000000110011001100101011101000110001101101000 ""
1)"
1*"
1C"
1G"
0M"
#80000
0G"
#85000
b00000000000000000000000000001000 )
b00000000000000000000000000000100 8
b00000000000000000000000000001000 9
b00000000000000000000000000000100 >
b00000000000000000000000000001000 ?
1i
1s
0M!
1N!
0X!
0k!
1t!
0u!
b00100000 ~!
b00000000000000000000000000000000000000000000000000000000000000000000000000000000011011000110010001011111011100100111001100110001 ""
0)"
0*"
0C"
1G"
1J"
#90000
0G"
#95000
1$
b00000000000000000000000000001000 &
b01 e
1j
1m
0N!
1X!
1k!
0t!
b00001000 ~!
b00000000000000000000000000000000000000000000000000000000000000000000000000000000000000000000000001100101011110000110010101100011 ""
1G"
0J"
1M"
#100000
0G"
#105000
0$
b00000000000000000000000000000000 )
b00000000000000000000000000000100 :
b00 e
0i
0j
0m
0s
1M!
1u!
b01000000 ~!
b00000000000000000000000000000000000000000000000000000000000000000000000000000000000000000110011001100101011101000110001101101000 ""
1)"
1*"
1C"
1G"
0M"
#110000
0G"
#115000
b00000000000000000000000000001100 )
b00000000000000000000000000001000 8
b00000000000000000000000000001100 9
b00000000000000000000000000000000 :
b00000000000000000000000000001000 >
b00000000000000000000000000001100 ?
1i
1s
0M!
1N!
0X!
0k!
1t!
0u!
b00100000 ~!
b00000000000000000000000000000000000000000000000000000000000000000000000000000000011011000110010001011111011100100111001100110001 ""
0)"
0*"
0C"
1G"
1J"
#120000
0G"
#125000
1$
b00000000000000000000000000001100 &
b01 e
1j
1m
0N!
1X!
1k!
0t!
b00001000 ~!
b00000000000000000000000000000000000000000000000000000000000000000000000000000000000000000000000001100101011110000110010101100011 ""
1G"
0J"
1M"
#130000
0G"
#135000
0$
b00000000000000000000000000000000 )
b00000000000000000000000000001000 :
b00 e
0i
0j
0m
0s
1M!
1u!
b01000000 ~!
b00000000000000000000000000000000000000000000000000000000000000000000000000000000000000000110011001100101011101000110001101101000 ""
1)"
1*"
1C"
1G"
0M"
#140000
0G"
#145000
b00000000000000000000000000010000 )
b00000000000000000000000000001100 8
b00000000000000000000000000010000 9
b00000000000000000000000000000000 :
b00000000000000000000000000001100 >
b00000000000000000000000000010000 ?
1i
1s
0M!
1N!
0X!
0k!
1t!
0u!
b00100000 ~!
b00000000000000000000000000000000000000000000000000000000000000000000000000000000011011000110010001011111011100100111001100110001 ""
0)"
0*"
0C"
1G"
1J"
#150000
0G"
#155000
1$
b00000000000000000000000000010000 &
b01 e
1j
1m
0N!
1X!
1k!
0t!
b00001000 ~!
b00000000000000000000000000000000000000000000000000000000000000000000000000000000000000000000000001100101011110000110010101100011 ""
1G"
0J"
1M"
#160000
0G"
#165000
0$
b00000000000000000000000000000000 )
b00000000000000000000000000001100 :
b00 e
0i
0j
0m
0s
1M!
1u!
b01000000 ~!
b00000000000000000000000000000000000000000000000000000000000000000000000000000000000000000110011001100101011101000110001101101000 ""
1)"
1*"
1C"
1G"
0M"
#170000
0G"
#175000
b00000000000000000000000000010100 )
b00000000000000000000000000010000 8
b00000000000000000000000000010100 9
b00000000000000000000000000000000 :
b00000000000000000000000000010000 >
b00000000000000000000000000010100 ?
1i
1s
0M!
1N!
0X!
0k!
1t!
0u!
b00100000 ~!
b00000000000000000000000000000000000000000000000000000000000000000000000000000000011011000110010001011111011100100111001100110001 ""
0)"
0*"
0C"
1G"
1J"
#180000
0G"
#185000
1$
b00000000000000000000000000010100 &
b01 e
1j
1m
0N!
1X!
1k!
0t!
b00001000 ~!
b00000000000000000000000000000000000000000000000000000000000000000000000000000000000000000000000001100101011110000110010101100011 ""
1G"
0J"
1M"
#190000
0G"
#195000
0$
b00000000000000000000000000000000 )
b00000000000000000000000000010000 :
b00 e
0i
0j
0m
0s
1M!
1u!
b01000000 ~!
b00000000000000000000000000000000000000000000000000000000000000000000000000000000000000000110011001100101011101000110001101101000 ""
1)"
1*"
1C"
1G"
0M"
#200000
0G"
#205000
b00000000000000000000000000011000 )
b00000000000000000000000000010100 8
b00000000000000000000000000011000 9
b00000000000000000000000000000000 :
b00000000000000000000000000010100 >
b00000000000000000000000000011000 ?
1i
1s
0M!
1N!
0X!
0k!
1t!
0u!
b00100000 ~!
b00000000000000000000000000000000000000000000000000000000000000000000000000000000011011000110010001011111011100100111001100110001 ""
0)"
0*"
0C"
1G"
1J"
#210000
0G"
#215000
1$
b00000000000000000000000000011000 &
b01 e
1j
1m
0N!
1X!
1k!
0t!
b00001000 ~!
b00000000000000000000000000000000000000000000000000000000000000000000000000000000000000000000000001100101011110000110010101100011 ""
1G"
0J"
1M"
